<?xml version="1.0" encoding="UTF-8" standalone="no"?>
<svg
   xmlns:dc="http://purl.org/dc/elements/1.1/"
   xmlns:cc="http://creativecommons.org/ns#"
   xmlns:rdf="http://www.w3.org/1999/02/22-rdf-syntax-ns#"
   xmlns:svg="http://www.w3.org/2000/svg"
   xmlns="http://www.w3.org/2000/svg"
   xmlns:sodipodi="http://sodipodi.sourceforge.net/DTD/sodipodi-0.dtd"
   xmlns:inkscape="http://www.inkscape.org/namespaces/inkscape"
   inkscape:version="1.0rc1 (09960d6, 2020-04-09)"
   height="169.33401"
   width="384"
   sodipodi:docname="menu.svg"
   xml:space="preserve"
   viewBox="0 0 384 169.33401"
   y="0px"
   x="0px"
   id="Capa_1"
   version="1.1"><metadata
   id="metadata880"><rdf:RDF><cc:Work
       rdf:about=""><dc:format>image/svg+xml</dc:format><dc:type
         rdf:resource="http://purl.org/dc/dcmitype/StillImage" /></cc:Work></rdf:RDF></metadata><defs
   id="defs878" /><sodipodi:namedview
   inkscape:current-layer="g839"
   inkscape:window-maximized="0"
   inkscape:window-y="25"
   inkscape:window-x="0"
   inkscape:cy="219.37112"
   inkscape:cx="246.10925"
   inkscape:zoom="0.32154455"
   showgrid="false"
   id="namedview876"
   inkscape:window-height="480"
   inkscape:window-width="776"
   inkscape:pageshadow="2"
   inkscape:pageopacity="0"
   guidetolerance="10"
   gridtolerance="10"
   objecttolerance="10"
   borderopacity="1"
   bordercolor="#666666"
   pagecolor="#ffffff" />
<g
   transform="translate(0,-64)"
   id="g843">
	<g
   id="g841">
		<g
   id="g839">
			
			<rect
   style="fill:#2b2b2b;fill-opacity:1"
   id="rect835"
   height="42.667"
   width="384"
   y="190.66701"
   x="0" />
			<rect
   style="fill:#2b2b2b;fill-opacity:1"
   id="rect837"
   height="42.667"
   width="384"
   y="64"
   x="0" />
		</g>
	</g>
</g>
<g
   transform="translate(0,-64)"
   id="g845">
</g>
<g
   transform="translate(0,-64)"
   id="g847">
</g>
<g
   transform="translate(0,-64)"
   id="g849">
</g>
<g
   transform="translate(0,-64)"
   id="g851">
</g>
<g
   transform="translate(0,-64)"
   id="g853">
</g>
<g
   transform="translate(0,-64)"
   id="g855">
</g>
<g
   transform="translate(0,-64)"
   id="g857">
</g>
<g
   transform="translate(0,-64)"
   id="g859">
</g>
<g
   transform="translate(0,-64)"
   id="g861">
</g>
<g
   transform="translate(0,-64)"
   id="g863">
</g>
<g
   transform="translate(0,-64)"
   id="g865">
</g>
<g
   transform="translate(0,-64)"
   id="g867">
</g>
<g
   transform="translate(0,-64)"
   id="g869">
</g>
<g
   transform="translate(0,-64)"
   id="g871">
</g>
<g
   transform="translate(0,-64)"
   id="g873">
</g>
</svg>
