<svg width="512" height="95" viewBox="0 0 512 95" fill="none" xmlns="http://www.w3.org/2000/svg">
<path d="M369.735 86.2139V16.8502H393.459C397.077 16.8502 400.41 17.1339 403.46 17.7013C406.58 18.1978 409.276 19.1198 411.545 20.4673C413.886 21.8149 415.694 23.588 416.971 25.7866C418.318 27.9853 418.992 30.7513 418.992 34.0848C418.992 35.6451 418.779 37.2054 418.354 38.7657C417.928 40.3261 417.325 41.78 416.545 43.1276C415.765 44.4751 414.808 45.6808 413.673 46.7447C412.609 47.8086 411.368 48.5887 409.949 49.0852V49.5107C411.722 49.9363 413.354 50.6101 414.843 51.5321C416.332 52.3832 417.645 53.4825 418.779 54.83C419.914 56.1776 420.801 57.7734 421.439 59.6174C422.077 61.3905 422.396 63.4473 422.396 65.7878C422.396 69.334 421.687 72.3837 420.269 74.937C418.921 77.4903 417.006 79.618 414.524 81.3202C412.112 82.9514 409.276 84.1926 406.013 85.0437C402.75 85.8238 399.24 86.2139 395.481 86.2139H369.735ZM385.374 44.617H392.715C396.545 44.617 399.311 43.8723 401.013 42.3829C402.786 40.8935 403.673 38.9076 403.673 36.4253C403.673 33.7301 402.786 31.8152 401.013 30.6804C399.24 29.5456 396.509 28.9782 392.821 28.9782H385.374V44.617ZM385.374 74.0859H394.204C402.786 74.0859 407.077 70.9653 407.077 64.7239C407.077 61.6742 406.013 59.511 403.885 58.2344C401.758 56.8868 398.531 56.2131 394.204 56.2131H385.374V74.0859Z" fill="#112535"/>
<path d="M434.149 86.2139V16.8502H449.788V86.2139H434.149Z" fill="#112535"/>
<path d="M461.786 86.2139V76.7456L492.425 30.0421H464.658V16.8502H511.681V26.3186L481.042 73.0221H512V86.2139H461.786Z" fill="#112535"/>
<path d="M113.769 16.77H126.098V56.7963C126.098 71.9304 131.824 76.8972 140.239 76.8972C148.77 76.8972 154.613 71.8719 154.613 56.7963V16.77H166.533V55.803C166.533 78.6501 156.307 87.5903 140.239 87.5903C124.053 87.5903 113.769 78.6501 113.769 55.803V16.77ZM184.647 16.77H206.91C221.168 16.77 231.686 21.1524 231.686 33.8907C231.686 40.4936 227.946 46.8628 219.765 49.0248V49.4338C229.757 51.1284 235.425 56.5626 235.425 65.9118C235.425 79.8772 224.031 86.3632 208.722 86.3632H184.647V16.77ZM205.683 45.5773C215.5 45.5773 219.532 41.8376 219.532 35.3516C219.532 28.9824 215.091 26.2945 206.034 26.2945H196.977V45.5773H205.683ZM207.436 76.7803C217.662 76.7803 223.271 72.9237 223.271 65.0938C223.271 57.8481 217.72 54.459 207.436 54.459H197.035V76.7803H207.436ZM248.923 16.77H290.703V27.171H261.252V44.9345H286.262V55.3355H261.252V75.8454H291.813V86.2464H248.923V16.77ZM344.636 86.3632L329.619 59.1336H319.101V86.3632H306.771V16.77H330.203C344.694 16.77 355.855 21.8536 355.855 37.3967C355.855 48.0314 350.304 54.4006 341.889 57.2638L358.484 86.3048H344.636V86.3632ZM319.101 49.317H328.917C338.5 49.317 343.584 45.2851 343.584 37.3967C343.584 29.3914 338.5 26.6451 328.917 26.6451H319.101V49.317Z" fill="#1989FA"/>
<path d="M29.4509 55.0433C29.6262 54.8681 29.8015 54.6927 29.9768 54.5174C30.1521 54.3422 30.3274 54.1669 30.5027 53.9916C30.678 53.8163 30.8533 53.641 31.0286 53.4657C32.2557 54.1084 33.0737 51.7711 34.5346 53.0566C36.5797 54.868 38.917 56.2704 41.488 57.2638C42.7151 57.7312 44.2344 58.4324 44.1759 60.3023C44.0006 60.4776 43.8838 60.6529 43.7085 60.8282C42.0139 63.1655 42.2477 64.3341 44.7018 64.9769C44.8187 65.2691 44.8771 65.6781 45.1109 65.7949C45.5199 65.9702 45.6368 65.6197 45.7536 65.2691C46.1042 65.2691 46.4548 65.2106 46.8638 65.2106C47.3313 65.5612 47.6819 65.4443 47.7988 64.86L47.7403 64.9185C47.9156 64.7432 48.1494 64.5679 48.3247 64.3926L48.2662 64.451C48.4415 64.2757 48.6168 64.1004 48.8506 63.8667L48.7921 63.9251C48.9674 63.7498 49.1427 63.5745 49.3764 63.3408C52.0059 64.1588 53.642 66.4961 55.9793 67.8401C57.6739 68.8334 59.9527 69.5346 60.9461 71.6382C59.4269 72.9822 58.4919 74.852 56.6805 75.9622C55.2197 76.0791 54.0511 76.4297 54.3432 78.2995C51.7137 79.1176 49.318 77.9489 48.0909 76.1375C46.1627 73.3328 43.241 72.9822 40.6115 71.7551C41.079 70.1774 40.8453 68.8919 39.326 67.957C37.5146 66.9052 36.4628 68.3075 35.2358 69.1256C34.8852 68.1323 36.346 66.5546 35.2942 66.2624C32.7231 65.6197 31.3208 63.1655 28.6913 62.698C27.4642 62.4643 25.2438 62.8149 26.0034 60.127C26.1203 59.6595 25.1853 59.718 24.7179 59.6595C25.2438 58.783 25.945 58.0818 26.8214 57.5559C26.9383 57.965 26.9967 58.5493 27.5811 58.3156C28.6913 57.9065 28.3991 56.9132 28.2823 56.0951C28.516 55.8614 28.6913 55.6277 28.925 55.4524C29.1003 55.3939 29.2756 55.2186 29.4509 55.0433Z" fill="#1989FA"/>
<path d="M87.7667 73.1575C86.4812 74.7936 84.9619 76.2544 83.3842 77.5399C83.7933 74.6183 81.7481 72.6316 79.8783 71.6382C77.4241 70.2943 75.0284 68.8919 72.5158 67.6648C71.5224 64.3341 70.2369 63.8082 67.2568 65.5028C67.4321 63.0486 65.0948 62.6396 63.8093 61.3541C61.5304 59.1336 58.9594 57.4391 55.6287 57.1469C57.3817 55.0433 59.31 53.1735 61.4136 51.3621C61.5889 51.1868 61.8226 50.9531 61.9979 50.7778C62.5238 49.9597 63.225 49.2585 64.043 48.7326C66.5556 50.0181 68.4839 52.4723 71.6393 52.6476C72.282 52.706 72.5158 53.4072 72.7495 53.9916C73.1001 54.9265 73.4507 55.6861 74.6778 55.6277C75.6711 55.5692 75.6711 56.3873 75.6711 57.0885V57.1469C75.4958 57.3222 75.379 57.4975 75.2037 57.7312C75.1452 57.7897 74.9699 57.7897 74.9699 57.8481C74.9699 57.965 74.9699 58.1403 74.9699 58.2571C74.8531 58.6662 74.7946 59.0752 74.6778 59.4842C74.6778 59.6011 74.6778 59.6595 74.7362 59.718C76.4307 62.5227 77.541 62.698 80.2289 60.8282C81.5144 60.7113 82.7415 60.6529 82.9752 62.4643C83.1505 63.8667 84.1438 64.3341 85.4878 64.6847C88.1757 65.3859 89.9871 67.3142 91.5648 69.4762C90.4546 69.2425 90.3377 70.0021 90.3377 70.7617L90.2208 70.8786C90.104 70.9954 89.9871 71.1707 89.8118 71.2876C89.5781 71.5213 89.2859 71.8135 89.0522 72.0472C88.7016 72.1057 88.4679 72.281 88.4094 72.69L88.4679 72.6316C88.0004 72.5731 87.8251 72.8069 87.7667 73.1575Z" fill="#1989FA"/>
<path d="M44.585 37.2798C43.3579 35.8774 41.8971 35.41 40.1441 36.2865C39.5598 34.5335 39.5013 32.1378 37.4562 31.6703C35.4695 31.2613 34.1255 30.2679 33.0153 28.8655C32.022 27.5216 30.7949 27.0541 29.2172 27.171C32.022 24.074 35.002 21.094 38.1574 18.2892C39.0339 18.4645 40.0272 18.5814 40.3194 19.4579C41.1374 21.503 43.1241 22.3795 44.6434 23.1391C47.0976 24.4246 48.4999 25.6517 47.8572 28.5149C47.0391 30.0342 46.747 31.5534 48.2662 32.7221C50.3114 34.2413 51.5969 32.6052 52.9993 31.495C55.2781 31.8456 56.9143 33.4817 58.6088 34.7088C60.6539 36.228 63.7509 36.6955 64.5105 39.7924C62.8159 42.0129 60.8292 43.8827 58.7841 45.6941C57.148 44.5255 55.4534 43.4737 53.9342 42.1882C51.9475 40.5521 49.6686 39.5587 47.5066 38.2732C46.5717 37.6304 45.7536 37.163 44.585 37.2798Z" fill="#1989FA"/>
<path d="M15.6024 40.8442C16.4789 39.9093 17.3554 38.9159 18.2319 38.0394C20.3939 35.819 20.3354 34.5919 17.8813 32.5468C17.7644 32.2546 17.5891 32.2546 17.3554 32.4883C15.1934 32.4299 14.3169 34.2998 12.9145 35.41C10.0513 37.6889 6.3116 37.6888 3.6237 35.3515C1.1111 33.1895 0.293043 29.4499 1.98759 26.6451C2.80565 25.3011 3.85743 24.0156 5.20138 23.1391C9.23323 23.4313 11.6874 26.5867 14.6675 28.6902C15.6024 29.3914 16.4789 30.0342 17.5307 30.6769C20.4523 32.313 24.4841 31.9625 26.4124 35.5853C26.8214 36.4033 27.9317 36.6955 28.8666 36.8708C30.9702 37.3383 31.6714 39.7924 33.7749 40.3768C33.9502 40.4352 33.7165 41.9544 33.6581 42.7725C31.5545 45.1682 29.3341 47.4471 26.8799 49.4922C26.7046 48.382 26.0618 47.7977 24.9516 47.8561C24.0751 47.9146 23.4324 47.5055 22.9065 46.8628C21.0366 44.6423 17.5891 44.2917 16.4789 41.1948C16.4789 40.9026 15.953 40.9026 15.6024 40.8442Z" fill="#1989FA"/>
<path d="M33.7165 42.6556C33.7749 41.8376 34.0087 40.2599 33.8334 40.2599C31.7298 39.6756 31.0286 37.2214 28.925 36.7539C27.9317 36.5202 26.8799 36.2865 26.4709 35.4684C24.5426 31.904 20.5692 32.1962 17.5891 30.5601C16.5373 29.9757 15.6608 29.2746 14.7259 28.5734C11.7458 26.4698 9.29166 23.3144 5.25981 23.0223C7.36339 20.5681 9.64226 18.3477 12.0964 16.1856C12.3302 16.0103 12.5055 15.7766 12.7392 15.6013C13.0898 15.2507 13.3819 14.9586 13.7325 14.608C15.1349 14.4911 16.2451 15.017 17.1801 16.0688C17.8813 16.8284 18.6409 17.9971 19.4589 18.0555C22.6727 18.2892 23.5492 21.094 25.3606 22.9054C25.1853 23.0807 24.9516 23.3144 24.7763 23.4897C23.1986 23.3144 22.6143 24.074 22.7896 25.5933C22.2053 27.2294 22.3221 28.6902 24.0167 29.5667C25.5944 30.3848 26.8214 29.6252 27.8732 28.4565C28.3407 27.9306 28.8666 27.5216 29.3925 27.1125C30.9702 27.0541 32.1388 27.4631 33.1906 28.8071C34.2424 30.2095 35.5863 31.2028 37.6315 31.6119C39.6182 32.0209 39.7351 34.4751 40.3194 36.228C38.917 35.9359 38.0989 36.1112 38.6833 37.8057C37.0472 39.6756 35.4695 41.2532 33.7165 42.6556Z" fill="#1989FA"/>
<path d="M20.1017 55.7445C17.8228 58.783 15.1349 61.5294 12.3886 64.1588C9.23323 67.1973 4.96765 67.1973 2.10445 64.3341C-0.758748 61.4709 -0.700314 57.1469 2.27975 53.9916C4.32489 51.888 6.54533 49.8428 8.64891 47.7977C9.58383 49.3754 10.9278 50.4856 12.3886 51.5374C14.7843 53.3488 17.6475 54.1084 20.1017 55.7445Z" fill="#1989FA"/>
<path d="M45.4615 10.9267C48.4415 7.88821 51.3047 4.73285 54.4601 1.86965C57.3817 -0.818246 61.6473 -0.526084 64.3352 2.22025C66.8478 4.84972 67.0231 9.17373 64.5105 11.9201C62.6991 13.9068 60.6539 15.6598 58.7257 17.5296C56.1546 16.9453 53.8173 15.1923 52.0643 13.7315C49.9608 12.0369 47.9156 11.3942 45.4615 10.9267Z" fill="#1989FA"/>
<path d="M25.2438 22.9638C23.4324 21.1524 22.5559 18.3477 19.3421 18.1139C18.524 18.0555 17.706 16.8868 17.0632 16.1272C16.1283 15.0754 15.0181 14.5495 13.6157 14.6664C16.0699 12.2122 18.4072 9.58276 20.9198 7.24546C23.783 4.61599 27.8732 4.79128 30.6196 7.42075C33.3659 10.0502 33.5996 14.4327 30.9702 17.2959C29.1588 19.341 27.172 21.094 25.2438 22.9638Z" fill="#1989FA"/>
<path d="M26.8214 77.6568C25.4191 79.1176 24.1336 80.6368 22.6727 81.9223C19.8095 84.3765 15.6024 84.1428 12.9729 81.5133C10.3435 78.8838 10.1682 74.6767 12.6223 71.8135C13.7325 70.528 15.0765 69.4178 16.362 68.1907C16.9463 68.3075 17.9397 67.8985 17.6475 69.1256C17.5307 69.5931 16.8879 69.9437 17.5307 70.4696C18.0566 70.8786 18.524 70.528 18.8746 70.119C20.1601 68.775 21.0366 69.184 21.9131 70.6449C22.3221 71.4045 23.0233 72.2225 23.7245 72.4563C26.2371 73.3912 26.6461 75.3779 26.8214 77.6568Z" fill="#1989FA"/>
<path d="M45.4615 10.9267C47.9156 11.3942 49.9608 12.0369 52.1228 13.7899C53.8758 15.2507 56.2131 17.0037 58.7841 17.588C55.3366 21.4446 51.7137 25.009 47.9156 28.5149C48.5584 25.7102 47.156 24.4246 44.7018 23.1391C43.1826 22.3211 41.1374 21.4446 40.3778 19.4579C40.0272 18.5814 39.0339 18.4645 38.2158 18.2892C40.6115 15.8351 43.0073 13.3809 45.4615 10.9267Z" fill="#1989FA"/>
<path d="M72.4573 67.6648C74.9699 68.8919 77.3657 70.3527 79.8198 71.6382C81.6897 72.6316 83.7348 74.6767 83.3258 77.5399C82.0403 78.8254 80.8716 80.2862 79.4692 81.4549C76.5476 83.9675 72.3989 83.6753 69.7694 80.9874C67.14 78.2995 66.9647 74.1508 69.4773 71.2292C70.5291 70.119 71.8146 69.1256 72.4573 67.6648Z" fill="#1989FA"/>
<path d="M83.4427 18.4061C83.4427 22.2626 80.112 25.5933 76.2555 25.5933C72.3989 25.5933 69.0682 22.3211 69.0098 18.4645C68.9514 14.4911 72.3989 11.0436 76.3139 11.102C80.1704 11.1604 83.4427 14.5495 83.4427 18.4061Z" fill="#1989FA"/>
<path d="M26.8214 77.6568C26.6461 75.4363 26.2371 73.3912 23.6661 72.5147C22.9065 72.281 22.2637 71.4045 21.8547 70.7033C20.9782 69.2425 20.1017 68.8334 18.8162 70.1774C18.4656 70.5864 17.9981 70.937 17.4722 70.528C16.8295 70.0605 17.5307 69.6515 17.5891 69.184C17.8813 67.957 16.8879 68.366 16.3036 68.2491C18.933 65.269 21.7378 62.5227 24.7179 59.8348C25.1853 59.8932 26.1787 59.8348 26.0034 60.3023C25.2438 62.9902 27.4642 62.6396 28.6913 62.8733C31.3208 63.3408 32.7231 65.7949 35.2942 66.4377C36.346 66.6714 34.8852 68.2491 35.2358 69.3009C35.0605 69.4762 34.8851 69.6515 34.7099 69.8268C34.5346 70.0021 34.3593 70.1774 34.184 70.3527C31.9051 72.9237 29.4509 75.3779 26.8214 77.6568Z" fill="#1989FA"/>
<path d="M40.6115 71.8719C43.241 73.099 46.1627 73.3912 48.0909 76.2544C49.318 78.0658 51.7137 79.2344 54.3432 78.4164C51.071 81.9223 47.7988 85.4283 44.1759 88.5252C41.8386 84.0843 37.4562 81.9808 33.5996 79.176C35.1773 77.2477 36.9303 75.5532 38.8586 73.9171C39.3845 74.0339 39.5598 75.1442 40.2025 74.6183C40.9037 74.0924 40.0857 73.3912 39.9104 72.8069C40.1441 72.5147 40.3778 72.1641 40.6115 71.8719Z" fill="#1989FA"/>
<path d="M33.5996 79.176C37.3978 81.9223 41.8386 84.0259 44.1759 88.5252C42.832 89.986 41.5465 91.5637 40.0272 92.7908C36.9887 95.3034 32.7231 94.9528 30.1521 92.1481C27.6979 89.4602 27.6979 85.1946 30.2105 82.3898C31.2623 81.2211 32.431 80.2278 33.5996 79.176Z" fill="#1989FA"/>
<path d="M90.8052 41.9544C88.1757 44.9345 85.3709 47.7393 82.3909 50.3103C82.3909 48.4989 81.5144 47.3302 80.0536 46.2785C77.4241 44.4086 74.9115 42.3635 72.3989 40.3768C74.6778 37.7473 77.1319 35.3515 79.703 33.0142C82.5662 33.1895 83.618 36.1696 86.0721 37.1045C88.351 37.9226 89.8702 39.734 90.8052 41.9544Z" fill="#1989FA"/>
<path d="M72.3989 40.3768C74.9699 42.3635 77.4241 44.4086 80.0536 46.2785C81.5144 47.3302 82.3909 48.4989 82.3909 50.3103C80.2873 52.7645 78.0084 55.0433 75.5543 57.1469C75.5543 56.4457 75.5543 55.6277 74.5609 55.6861C73.3338 55.7445 72.9832 54.9849 72.6326 54.05C72.4573 53.4657 72.1652 52.706 71.5224 52.706C68.367 52.5307 66.4972 50.0766 63.9262 48.791C66.6141 45.811 69.4188 43.0062 72.3989 40.3768Z" fill="#1989FA"/>
<path d="M44.585 37.2798C45.7536 37.1045 46.6301 37.6304 47.6235 38.2147C49.7855 39.5003 52.0643 40.4936 54.0511 42.1297C55.5703 43.4152 57.2648 44.467 58.901 45.6357C56.4468 48.4405 53.8173 51.0699 51.0126 53.5241C50.4282 48.5573 44.9356 49.2001 42.5983 46.22C42.5398 46.1616 42.1892 46.1031 42.1308 46.22C40.8453 47.4471 39.6766 46.2784 38.3911 46.1616C39.9688 44.467 41.5465 42.7725 43.241 41.1948C44.4097 40.0846 44.994 38.9159 44.585 37.2798Z" fill="#1989FA"/>
<path d="M38.3911 46.1616C39.6182 46.22 40.8453 47.3887 42.1308 46.22C42.2477 46.1616 42.5398 46.1616 42.5983 46.22C44.9356 49.2001 50.4282 48.5573 51.0126 53.5241C48.909 55.9783 46.6301 58.2571 44.1759 60.3607C44.2344 58.4909 42.7151 57.7897 41.488 57.3222C38.917 56.3289 36.5797 54.9265 34.5346 53.1151C33.0737 51.8295 32.2557 54.1084 31.0286 53.5241C32.9569 51.2452 35.0604 49.2001 37.3393 47.2134C37.5146 47.0381 37.6899 46.8628 37.8652 46.6875C38.0405 46.5122 38.2158 46.3369 38.3911 46.1616Z" fill="#1989FA"/>
<path d="M20.1017 55.7445C17.6475 54.1084 14.7843 53.2904 12.3886 51.5374C10.9278 50.4272 9.5254 49.3754 8.64891 47.7977C8.94107 47.2718 9.3501 46.8043 9.93442 46.5706C10.0513 46.629 10.1097 46.7459 10.2266 46.8043C10.1682 46.6875 10.0513 46.629 9.99286 46.5122C11.629 44.4086 13.6741 42.6556 15.6608 40.7858C16.0114 40.9026 16.5373 40.9026 16.5957 41.0779C17.706 44.1749 21.1535 44.5255 23.0233 46.7459C23.5492 47.3887 24.192 47.7977 25.0685 47.7393C26.2371 47.6808 26.8214 48.2652 26.9967 49.3754C26.8214 49.6091 26.5877 49.7844 26.4124 50.0181C24.4257 52.0633 22.7312 54.4006 20.1017 55.7445Z" fill="#1989FA"/>
<path d="M55.6287 57.1469C58.901 57.4391 61.5304 59.1336 63.8093 61.3541C65.0948 62.5811 67.4321 63.0486 67.2568 65.5028L67.1984 65.5612C66.5556 65.6196 66.205 65.9118 66.205 66.5546C64.6274 68.4244 62.9328 70.2358 60.9461 71.6966C59.9527 69.5931 57.6739 68.8919 55.9793 67.8985C53.642 66.5546 52.0059 64.2173 49.3764 63.3992C50.7788 61.6462 52.3565 60.127 54.0511 58.6662C54.2264 58.4909 54.4601 58.2571 54.6354 58.0818C54.9275 57.7897 55.2781 57.4975 55.6287 57.1469Z" fill="#1989FA"/>
<path d="M90.8052 41.9544C89.8702 39.734 88.351 37.9226 86.1306 37.1045C83.6764 36.1696 82.5662 33.248 79.7614 33.0142C81.5728 30.9691 83.2674 28.6902 86.2474 28.2228C89.2275 27.7553 92.0907 28.9824 93.6099 31.5534C95.1292 34.1829 95.0707 36.8708 93.3762 39.3834C92.675 40.3768 91.857 41.3117 90.8052 41.9544Z" fill="#1989FA"/>
<path d="M64.5689 39.7924C63.8093 36.7539 60.7124 36.228 58.6672 34.7088C56.9727 33.4817 55.3366 31.8456 53.0577 31.495C53.9342 30.5601 54.7522 29.5083 55.7456 28.6902C58.9594 25.8855 63.634 26.2361 66.205 29.3914C68.8345 32.7221 68.1917 37.0461 64.5689 39.7924Z" fill="#1989FA"/>
<path d="M91.5064 69.3593C89.9287 67.1973 88.1173 65.2691 85.4294 64.5679C84.0854 64.2173 83.0921 63.7498 82.9168 62.3474C82.683 60.536 81.456 60.5944 80.1704 60.7113C83.4427 56.9716 87.7083 56.3873 90.922 59.1336C94.0774 61.88 94.3111 66.1455 91.5064 69.3593Z" fill="#1989FA"/>
<path d="M44.7018 65.0353C42.2477 64.3926 41.9555 63.2239 43.7085 60.8866C43.0657 62.4643 43.4163 63.8667 44.7018 65.0353Z" fill="#1989FA"/>
<path d="M54.3432 78.358C54.0511 76.4881 55.2197 76.1375 56.6805 76.0206C56.0962 76.9556 55.2781 77.7152 54.3432 78.358Z" fill="#1989FA"/>
<path d="M22.6143 25.7102C22.439 24.1909 23.0233 23.4313 24.601 23.6066C23.9583 24.3078 23.3155 25.009 22.6143 25.7102Z" fill="#1989FA"/>
<path d="M28.2823 56.2704C28.3991 57.1469 28.6913 58.0818 27.5811 58.4909C26.9967 58.7246 26.9383 58.1403 26.8214 57.7312C27.3473 57.2053 27.8148 56.7379 28.2823 56.2704Z" fill="#1989FA"/>
<path d="M39.9104 72.8069C40.0857 73.3912 40.8453 74.0924 40.2025 74.6183C39.5598 75.1442 39.3845 73.9755 38.8586 73.9171C39.2092 73.5665 39.5598 73.2159 39.9104 72.8069Z" fill="#1989FA"/>
<path d="M38.4495 37.9226C37.8652 36.228 38.7417 35.9943 40.0857 36.3449C39.6766 36.9877 39.1507 37.5136 38.4495 37.9226Z" fill="#1989FA"/>
<path d="M90.2208 70.6448C90.2793 69.8852 90.3961 69.1256 91.4479 69.3593C91.2726 70.0021 90.8052 70.4111 90.2208 70.6448Z" fill="#1989FA"/>
<path d="M45.7536 65.3275C45.6368 65.6781 45.5199 66.0287 45.1109 65.8534C44.8771 65.7365 44.8187 65.3275 44.7018 65.0353C45.0524 65.0937 45.403 65.2106 45.7536 65.3275Z" fill="#1989FA"/>
<path d="M66.1466 66.5546C66.205 65.9118 66.5556 65.5612 67.14 65.5612C67.0231 66.0871 66.6141 66.3793 66.1466 66.5546Z" fill="#1989FA"/>
<path d="M47.7403 64.9185C47.565 65.5028 47.2729 65.6196 46.8054 65.2691C47.156 65.1522 47.4482 65.0353 47.7403 64.9185Z" fill="#1989FA"/>
<path d="M12.6223 15.6013C12.3886 15.7766 12.2133 16.0103 11.9796 16.1856C12.2133 16.0103 12.447 15.8351 12.6223 15.6013Z" fill="#1989FA"/>
<path d="M49.3764 63.3992C49.2011 63.5745 49.0258 63.7498 48.7921 63.9835C48.9674 63.7498 49.2011 63.5745 49.3764 63.3992Z" fill="#1989FA"/>
<path d="M48.8506 63.9251C48.6753 64.1004 48.5 64.2757 48.2662 64.5094C48.4415 64.2757 48.6753 64.1004 48.8506 63.9251Z" fill="#1989FA"/>
<path d="M48.3247 64.451C48.1494 64.6263 47.9156 64.8016 47.7403 64.9769C47.9156 64.8016 48.0909 64.6263 48.3247 64.451Z" fill="#1989FA"/>
<path d="M74.6778 59.6595C74.6193 59.6011 74.6193 59.4842 74.6193 59.4258L74.7362 59.5427L74.6778 59.6595Z" fill="#1989FA"/>
<path d="M54.6354 58.1403C54.4601 58.3156 54.2264 58.5493 54.0511 58.7246C54.2264 58.5493 54.4016 58.3156 54.6354 58.1403Z" fill="#1989FA"/>
<path d="M74.9115 58.1987C74.9115 58.0818 74.8531 57.9065 74.9115 57.7897C74.9115 57.7312 75.0284 57.7312 75.1452 57.6728C75.0284 57.9065 74.9699 58.0234 74.9115 58.1987Z" fill="#1989FA"/>
<path d="M75.0868 57.7312C75.2621 57.5559 75.379 57.3806 75.5543 57.1469C75.4374 57.3806 75.2621 57.5559 75.0868 57.7312Z" fill="#1989FA"/>
<path d="M61.9395 50.7778C61.7642 50.9531 61.5304 51.1868 61.3551 51.3621C61.5889 51.1868 61.7642 51.0115 61.9395 50.7778Z" fill="#1989FA"/>
<path d="M89.7534 71.1707C89.8702 71.0539 89.9871 70.8786 90.1624 70.7617C89.9871 70.937 89.8702 71.0539 89.7534 71.1707Z" fill="#1989FA"/>
<path d="M88.2926 72.5731C88.351 72.1641 88.5847 71.9888 88.9353 71.9304C88.76 72.1641 88.5263 72.3394 88.2926 72.5731Z" fill="#1989FA"/>
<path d="M87.7667 73.1575C87.8251 72.8069 88.0004 72.5147 88.4094 72.4563C88.1757 72.69 87.942 72.9237 87.7667 73.1575Z" fill="#1989FA"/>
<path d="M26.354 50.0181C26.5293 49.7844 26.763 49.6091 26.9383 49.3754C26.763 49.5507 26.5877 49.7844 26.354 50.0181Z" fill="#1989FA"/>
<path d="M17.4138 32.4299C17.5891 32.1962 17.7644 32.1962 17.9397 32.4883C17.7644 32.4883 17.5891 32.4299 17.4138 32.4299Z" fill="#1989FA"/>
<path d="M9.93443 46.5122C9.99286 46.629 10.1097 46.6875 10.1682 46.8043C10.1097 46.7459 9.99286 46.629 9.93443 46.5122Z" fill="#1989FA"/>
</svg>
